Get started with climaemet 1.0.0
…
tidyverse format

From v1.0.0 onward, climaemet
provides its results in tibble
format. Also, the functions try to guess the correct format of the
fields (i.e. something as a Date/Hour now is an hour, numbers are parsed
as double, etc.).

See how a tibble is displayed:

# See a tibble in action

aemet_last_obs("9434")
#> # A tibble: 23 × 25
#>    idema   lon fint                 prec   alt  vmax    vv    dv   lat  dmax ubi        pres    hr stdvv    ts pres_nmar
#>    <chr> <dbl> <dttm>              <dbl> <dbl> <dbl> <dbl> <dbl> <dbl> <dbl> <chr>     <dbl> <dbl> <dbl> <dbl>     <dbl>
#>  1 9434  -1.00 2023-05-24 18:00:00     0   249   8.2   5     314  41.7   318 ZARAGOZA…  985.    49   1.1  24.4     1014.
#>  2 9434  -1.00 2023-05-24 19:00:00     0   249   8.2   4.9   323  41.7   313 ZARAGOZA…  986.    52   0.9  22.9     1015.
#>  3 9434  -1.00 2023-05-24 20:00:00     0   249   8.6   4.1   326  41.7   318 ZARAGOZA…  987.    59   0.8  20.5     1016.
#>  4 9434  -1.00 2023-05-24 21:00:00     0   249   7.8   5     322  41.7   320 ZARAGOZA…  988.    62   0.9  19.4     1017 
#>  5 9434  -1.00 2023-05-24 22:00:00     0   249   9.5   6.7   314  41.7   315 ZARAGOZA…  988.    64   1.1  17.8     1017.
#>  6 9434  -1.00 2023-05-24 23:00:00     0   249  10.7   7.7   304  41.7   305 ZARAGOZA…  988.    65   0.9  17.5     1017.
#>  7 9434  -1.00 2023-05-25 00:00:00     0   249  11.1   7.6   310  41.7   323 ZARAGOZA…  988.    64   1.1  17.1     1017.
#>  8 9434  -1.00 2023-05-25 01:00:00     0   249  11.3   7.3   300  41.7   308 ZARAGOZA…  987.    66   0.9  16.8     1017.
#>  9 9434  -1.00 2023-05-25 02:00:00     0   249   8.9   5.8   302  41.7   295 ZARAGOZA…  987.    66   0.7  16.5     1017.
#> 10 9434  -1.00 2023-05-25 03:00:00     0   249   9.1   6     307  41.7   293 ZARAGOZA…  987     69   1    16.1     1017.
#> # ℹ 13 more rows
#> # ℹ 9 more variables: tamin <dbl>, ta <dbl>, tamax <dbl>, tpr <dbl>, stddv <dbl>, inso <dbl>, tss5cm <dbl>,
#> #   pacutp <dbl>, tss20cm <dbl>
…
